<svg width="41" height="41" viewBox="0 0 41 41" fill="none" xmlns="http://www.w3.org/2000/svg">
<path d="M20.5 6.83325L19.7929 6.12614L20.5 5.41904L21.2071 6.12614L20.5 6.83325ZM21.5 32.4583C21.5 33.0105 21.0523 33.4583 20.5 33.4583C19.9477 33.4583 19.5 33.0105 19.5 32.4583L21.5 32.4583ZM9.54289 16.3761L19.7929 6.12614L21.2071 7.54036L10.9571 17.7904L9.54289 16.3761ZM21.2071 6.12614L31.4571 16.3761L30.0429 17.7904L19.7929 7.54036L21.2071 6.12614ZM21.5 6.83325L21.5 32.4583L19.5 32.4583L19.5 6.83325L21.5 6.83325Z" fill="#8FD7FF"/>
</svg>
